[gd_scene load_steps=3 format=2]

[ext_resource path="res://assets/sprites/tile.png" type="Texture" id=1]

[sub_resource type="RectangleShape2D" id=1]
extents = Vector2( 32, 32 )

[node name="Tile" type="StaticBody2D"]

[node name="Sprite" type="Sprite" parent="."]
texture = ExtResource( 1 )

[node name="CollisionShape2D" type="CollisionShape2D" parent="."]
visible = false
shape = SubResource( 1 )
